…
## Let’s simulate a lot

Let’s start with a for loop.

``` r
output = vector("list", length = 100)
for (i in 1:100) {
  
  output[[i]] = sim_mean_sd(samp_size = 30)
  
}
bind_rows(output)
```

    ## # A tibble: 100 x 2
    ##     mean    sd
    ##    <dbl> <dbl>
    ##  1  2.06  3.91
    ##  2  3.40  2.93
    ##  3  3.28  4.40
    ##  4  3.92  4.24
    ##  5  4.02  3.46
    ##  6  3.04  3.73
    ##  7  3.62  4.26
    ##  8  2.48  3.11
    ##  9  2.43  2.94
    ## 10  1.76  4.69
    ## # ... with 90 more rows
…
